        try
               {
        Class.forName("oracle.jdbc.OracleDriver");
        Connection con= DriverManager.getConnection("jdbc:oracle:thin:@localhost:1521/XE", "system", "manosankar");
        Statement st=(Statement) con.createStatement();
        PreparedStatement stmt=con.prepareStatement("insert into shop values(?,?)");
        stmt.setInt(1,Integer.parseInt(tf1.getText()));
        stmt.setString(2,tf2.getText());
        stmt.executeUpdate();
        
        JOptionPane.showMessageDialog(this, "datainserted");
        first j1=new first();
        j1.setVisible(true);
               }
       catch(Exception e)
       {
           System.out.println(e);
       }
